TSDC TEAM A ğŸ˜
…
.left-panel-df_intro-auto[

```r
library(gapminder)  

*df
```
]
 
.right-panel-df_intro-auto[

```
  # A tibble: 26,534 x 6
     date       location    new_cases new_deaths total_cases total_deaths
     <date>     <chr>           <dbl>      <dbl>       <dbl>        <dbl>
   1 2019-12-31 Afghanistan         0          0           0            0
   2 2020-01-01 Afghanistan         0          0           0            0
   3 2020-01-02 Afghanistan         0          0           0            0
   4 2020-01-03 Afghanistan         0          0           0            0
   5 2020-01-04 Afghanistan         0          0           0            0
   6 2020-01-05 Afghanistan         0          0           0            0
   7 2020-01-06 Afghanistan         0          0           0            0
   8 2020-01-07 Afghanistan         0          0           0            0
   9 2020-01-08 Afghanistan         0          0           0            0
  10 2020-01-09 Afghanistan         0          0           0            0
  # ... with 26,524 more rows
```
…
.left-panel-df_intro-auto[

```r
library(gapminder)  

df %>%  
* select(location, total_cases, date)
```
]
 
.right-panel-df_intro-auto[

```
  # A tibble: 26,534 x 3
     location    total_cases date      
     <chr>             <dbl> <date>    
   1 Afghanistan           0 2019-12-31
   2 Afghanistan           0 2020-01-01
   3 Afghanistan           0 2020-01-02
   4 Afghanistan           0 2020-01-03
   5 Afghanistan           0 2020-01-04
   6 Afghanistan           0 2020-01-05
   7 Afghanistan           0 2020-01-06
   8 Afghanistan           0 2020-01-07
   9 Afghanistan           0 2020-01-08
  10 Afghanistan           0 2020-01-09
  # ... with 26,524 more rows
```
…
.left-panel-df_intro-auto[

```r
library(gapminder)  

df %>%  
  select(location, total_cases, date) %>%  
* filter(location!="World")
```
]
 
.right-panel-df_intro-auto[

```
  # A tibble: 26,353 x 3
     location    total_cases date      
     <chr>             <dbl> <date>    
   1 Afghanistan           0 2019-12-31
   2 Afghanistan           0 2020-01-01
   3 Afghanistan           0 2020-01-02
   4 Afghanistan           0 2020-01-03
   5 Afghanistan           0 2020-01-04
   6 Afghanistan           0 2020-01-05
   7 Afghanistan           0 2020-01-06
   8 Afghanistan           0 2020-01-07
   9 Afghanistan           0 2020-01-08
  10 Afghanistan           0 2020-01-09
  # ... with 26,343 more rows
```
…
```r
library(gapminder)  

df %>%  
  select(location, total_cases, date) %>%  
  filter(location!="World")%>%  
* group_by(date)
```
]
 
.right-panel-df_intro-auto[

```
  # A tibble: 26,353 x 3
  # Groups:   date [181]
     location    total_cases date      
     <chr>             <dbl> <date>    
   1 Afghanistan           0 2019-12-31
   2 Afghanistan           0 2020-01-01
   3 Afghanistan           0 2020-01-02
   4 Afghanistan           0 2020-01-03
   5 Afghanistan           0 2020-01-04
   6 Afghanistan           0 2020-01-05
   7 Afghanistan           0 2020-01-06
   8 Afghanistan           0 2020-01-07
   9 Afghanistan           0 2020-01-08
  10 Afghanistan           0 2020-01-09
  # ... with 26,343 more rows
```
…
```r
library(gapminder)  

df %>%  
  select(location, total_cases, date) %>%  
  filter(location!="World")%>%  
  group_by(date) %>%  
* arrange(date, -total_cases)
```
]
 
.right-panel-df_intro-auto[

```
  # A tibble: 26,353 x 3
  # Groups:   date [181]
     location    total_cases date      
     <chr>             <dbl> <date>    
   1 China                27 2019-12-31
   2 Afghanistan           0 2019-12-31
   3 Algeria               0 2019-12-31
   4 Armenia               0 2019-12-31
   5 Australia             0 2019-12-31
   6 Austria               0 2019-12-31
   7 Azerbaijan            0 2019-12-31
   8 Bahrain               0 2019-12-31
   9 Belarus               0 2019-12-31
  10 Belgium               0 2019-12-31
  # ... with 26,343 more rows
```
…
df %>%  
  select(location, total_cases, date) %>%  
  filter(location!="World")%>%  
  group_by(date) %>%  
  arrange(date, -total_cases) %>%  
# assign ranking
* mutate(rank = 1:n())
```
]
 
.right-panel-df_intro-auto[

```
  # A tibble: 26,353 x 4
  # Groups:   date [181]
     location    total_cases date        rank
     <chr>             <dbl> <date>     <int>
   1 China                27 2019-12-31     1
   2 Afghanistan           0 2019-12-31     2
   3 Algeria               0 2019-12-31     3
   4 Armenia               0 2019-12-31     4
   5 Australia             0 2019-12-31     5
   6 Austria               0 2019-12-31     6
   7 Azerbaijan            0 2019-12-31     7
   8 Bahrain               0 2019-12-31     8
   9 Belarus               0 2019-12-31     9
  10 Belgium               0 2019-12-31    10
  # ... with 26,343 more rows
```
…
---
count: false

.left-panel-plot1-auto[

```r
# first plot a small data
*ranked_by_date
```
]
 
.right-panel-plot1-auto[

```
  # A tibble: 26,353 x 4
  # Groups:   date [181]
     location    total_cases date        rank
     <chr>             <dbl> <date>     <int>
   1 China                27 2019-12-31     1
   2 Afghanistan           0 2019-12-31     2
   3 Algeria               0 2019-12-31     3
   4 Armenia               0 2019-12-31     4
   5 Australia             0 2019-12-31     5
   6 Austria               0 2019-12-31     6
   7 Azerbaijan            0 2019-12-31     7
   8 Bahrain               0 2019-12-31     8
   9 Belarus               0 2019-12-31     9
  10 Belgium               0 2019-12-31    10
  # ... with 26,343 more rows
```
…
.left-panel-plot1-auto[

```r
# first plot a small data
ranked_by_date %>%  
* filter(date>'2020-06-20')
```
]
 
.right-panel-plot1-auto[

```
  # A tibble: 1,671 x 4
  # Groups:   date [8]
     location total_cases date        rank
     <chr>          <dbl> <date>     <int>
   1 US           2255119 2020-06-21     1
   2 Brazil       1067579 2020-06-21     2
   3 Russia        576952 2020-06-21     3
   4 India         410461 2020-06-21     4
   5 UK            303110 2020-06-21     5
   6 Peru          251338 2020-06-21     6
   7 Spain         246272 2020-06-21     7
   8 Italy         238275 2020-06-21     8
   9 Chile         236748 2020-06-21     9
  10 Iran          202584 2020-06-21    10
  # ... with 1,661 more rows
```
…
.left-panel-plot1-auto[

```r
# first plot a small data
ranked_by_date %>%  
  filter(date>'2020-06-20') %>%  
* filter(rank <= 6)
```
]
 
.right-panel-plot1-auto[

```
  # A tibble: 48 x 4
  # Groups:   date [8]
     location total_cases date        rank
     <chr>          <dbl> <date>     <int>
   1 US           2255119 2020-06-21     1
   2 Brazil       1067579 2020-06-21     2
   3 Russia        576952 2020-06-21     3
   4 India         410461 2020-06-21     4
   5 UK            303110 2020-06-21     5
   6 Peru          251338 2020-06-21     6
   7 US           2280912 2020-06-22     1
   8 Brazil       1085038 2020-06-22     2
   9 Russia        584680 2020-06-22     3
  10 India         425282 2020-06-22     4
  # ... with 38 more rows
```
…
